<?xml version="1.0" encoding="utf-8"?>
<!-- Generator: Adobe Illustrator 23.1.0, SVG Export Plug-In . SVG Version: 6.00 Build 0)  -->
<svg version="1.1" id="Calque_1" xmlns="http://www.w3.org/2000/svg" xmlns:xlink="http://www.w3.org/1999/xlink" x="0px" y="0px"
	 width="24px" height="24px" viewBox="0 0 24 24" style="enable-background:new 0 0 24 24;" xml:space="preserve">
<style type="text/css">
	.st0{fill:#FFFFFF;}
</style>
<g id="info">
</g>
<g id="icons">
	<path id="search" class="st0" d="M22.4,19.6l-4.8-4.8c0.9-1.4,1.4-3,1.4-4.8c0-5-4-9-9-9s-9,4-9,9s4,9,9,9c1.8,0,3.4-0.5,4.8-1.4
		l4.8,4.8C20,22.8,20.5,23,21,23c1.1,0,2-0.9,2-2C23,20.4,22.8,19.9,22.4,19.6z M5,10c0-2.8,2.2-5,5-5s5,2.2,5,5s-2.2,5-5,5
		S5,12.8,5,10z"/>
</g>
</svg>
